city,long,lat
Barnsley,-1.47865052859739,53.5645049688304
Basildon,0.464503413908709,51.5758370513556
Basingstoke,-1.09752895997276,51.2638459719931
Bath,-2.36356343667877,51.3819750401151
Bedford,-0.456257990368512,52.1411297634215
Birkenhead,-3.04273783247686,53.3846373611737
Birmingham,-1.88108998755934,52.4686869759564
Blackburn,-2.48116011928397,53.7459315710965
Blackpool,-3.03006892608756,53.8150419209235
Bolton,-2.43124182118568,53.5861936253683
Bournemouth,-1.86556131617459,50.7421060692927
Bracknell,-0.750477829041635,51.4123288409238
Bradford,-1.75863640767717,53.7888192907007
Brighton and Hove,-0.148609629286741,50.8406855224794
Bristol,-2.5718062462496,51.4630261153108
Burnley,-2.25417854090642,53.7934075626867
Burton upon Trent,-1.63542122105249,52.8081416713534
Bury,-2.30534840160428,53.5908437809249
Cambridge,0.142143711066732,52.201456381227
Cardiff,-3.18418866979073,51.502082138536
Carlisle,-2.93751411213194,54.8931597172656
Chatham,0.528512502961785,51.3546422625437
Chelmsford,0.478247630961926,51.734910414677
Cheltenham,-2.08385034043262,51.8978049907249
Chester,-2.89400796967245,53.1960919108237
Chesterfield,-1.43274134382371,53.2429618175842
Colchester,0.893262265014364,51.8884015126493
Coventry,-1.51101149243908,52.4123279478128
Crawley,-0.184362686447795,51.1143764906424
Darlington,-1.55285591564137,54.5311806712764
Derby,-1.47055525400469,52.9119907345472
Doncaster,-1.11694047240928,53.517813572251
Dudley,-2.08661720685432,52.4960017224601
Eastbourne,0.281212220654916,50.7883047464585
Exeter,-3.51371963049983,50.7222081920239
Gateshead,-1.59377950904432,54.9444685758131
Gillingham,0.574012295051362,51.3712127030955
Gloucester,-2.22970237902246,51.8489457459167
Grimsby,-0.095211496550549,53.5610091721276
Guildford,-0.572032059079666,51.2450572392973
Halifax,-1.87919864612655,53.7266249727475
Harlow,0.105225145596663,51.7664198029353
Harrogate,-1.53399747262765,53.9918902983652
Hartlepool,-1.22213910295364,54.6780075554414
Hastings,0.566818251371227,50.8702112575322
Hemel Hempstead,-0.461071810235107,51.748909272167
High Wycombe,-0.739297515672142,51.6340834913551
Huddersfield,-1.78911388242286,53.6473838052129
Ipswich,1.16139143915747,52.0543269785189
Kingston upon Hull,-0.343844958078562,53.7603004777073
Leeds,-1.54644561325746,53.8095103461972
Leicester,-1.13554146722873,52.6336062010906
Lincoln,-0.55004889731853,53.2157773749912
Liverpool,-2.90920667220232,53.4062372832546
London,-0.12697536614359,51.5001841982518
Luton,-0.432659891711717,51.8951668120083
Maidstone,0.527835967871147,51.2671828652629
Manchester,-2.2150694580238,53.4733589226125
Mansfield,-1.18519688374616,53.1447205802627
Middlesbrough,-1.20849038125696,54.5516945000496
Milton Keynes,-0.76030139313046,52.0385595841689
Newcastle upon Tyne,-1.6314632506417,54.9903937642343
Newcastle-under-Lyme,-2.23625964236366,53.0192239759377
Newport,-2.99470804725804,51.5858245090154
Northampton,-0.881215102315422,52.2487854528566
Norwich,1.28724400762166,52.6408845848461
Nottingham,-1.17846981231321,52.9698415704402
Nuneaton,-1.47604768111435,52.5213601747337
Oldham,-2.10036716703685,53.5381180618645
Oxford,-1.23609872153582,51.7488039738283
Peterborough,-0.259613124655132,52.5777018214202
Plymouth,-4.12154136970216,50.3925760522111
Poole,-1.96613806363382,50.7350795248785
Portsmouth,-1.07809746373427,50.820687938642
Preston,-2.70473077009494,53.7742473138532
Reading,-0.970570095523213,51.4509175388088
Redditch,-1.92957919079162,52.2962511427947
Rochdale,-2.16695507978491,53.6140786564659
Rotherham,-1.34292700650477,53.4291943252767
Scunthorpe,-0.648469472314597,53.5789976126851
Sheffield,-1.45574330854152,53.3770778533806
Shrewsbury,-2.7504064694216,52.7119327112843
Slough,-0.604744076830418,51.5169204554339
Solihull,-1.79821112539287,52.4186266516336
South Shields,-1.42392008782977,54.9795035925707
Southampton,-1.39721787415054,50.9219522673262
Southend-on-Sea,0.703676127013273,51.5492208655913
Southport,-2.99703045655089,53.6376838321102
St Albans,-0.320236773469935,51.7510666212176
St Helens,-2.73315253859103,53.4480603747362
Stevenage,-0.187053956580808,51.9054406112126
Stockport,-2.16368136953955,53.4047335385863
Stockton-on-Tees,-1.33018453781285,54.5726286465994
Stoke-on-Trent,-2.1565680931827,53.0151413363729
Sunderland,-1.40669031527243,54.8997603742039
Sutton Coldfield,-1.83795656430085,52.5678458166468
Swansea,-3.95365273242593,51.6380948196269
Swindon,-1.78208985725833,51.5713717233009
Telford,-2.4658914016229,52.6830582522529
Wakefield,-1.50695885429012,53.6822696236944
Walsall,-1.97867045718996,52.5792722431424
Warrington,-2.58419278380059,53.3956528474184
Watford,-0.399965132994868,51.6664286870429
West Bromwich,-1.99857818379072,52.531332022146
Weston-Super-Mare,-2.9469454481685,51.3478363732772
Wigan,-2.65189269056343,53.542608301462
Woking,-0.556522887310685,51.3217452722915
Wolverhampton,-2.13028901326073,52.5908686287964
Worcester,-2.21232346596008,52.1967321887496
Worthing,-0.399946204475588,50.8240635198187
York,-1.08789510940706,53.9624388836129
